…
``` r
d %>% distinct(comments) %>% View()
```

Apply language related exclusion criterion: Check native languages.
Participants not indicating English as (one of) their native language(s)
are excluded. We also compute some participant demographics.

``` r
d %>% distinct(languages)
```

    ## # A tibble: 28 x 1
    ##    languages             
    ##    <chr>                 
    ##  1 English               
    ##  2 english               
    ##  3 <NA>                  
    ##  4 English, Danish       
    ##  5 English, French       
    ##  6 English Welsh         
    ##  7 2                     
    ##  8 yoruba                
    ##  9 english french bengali
    ## 10 English and Bulgarian 
    ## # … with 18 more rows
…
    ## `summarise()` regrouping output by 'ID' (override with `.groups` argument)

    ## # A tibble: 384 x 5
    ## # Groups:   ID [64]
    ##       ID test_question expected response difference
    ##    <dbl> <chr>            <dbl>    <dbl>      <dbl>
    ##  1    64 test_false1          0    100        100  
    ##  2     8 test_false1          0     77.1       77.1
    ##  3    18 test_false1          0     56.4       56.4
    ##  4    26 test_true1         100     51.4       48.6
    ##  5    58 test_true1         100     53.6       46.4
    ##  6     4 test_false1          0     45.9       45.9
    ##  7    63 test_false1          0     45.8       45.8
    ##  8     1 test_false2          0     45.2       45.2
    ##  9     6 test_false2          0     43.8       43.8
    ## 10     1 test_false1          0     42.9       42.9
    ## # … with 374 more rows
…
Write out tidy data:

``` r
d_full_clean %>% write_csv("./../../data/main/results_prereg_final_tidy.csv")
```

``` r
# get overall mean ratings / subject across comprehension and critical trials 
d_full_clean %>% group_by(submission_id) %>% summarise(mean_rating = mean(response)) %>% arrange(mean_rating)
```

    ## `summarise()` ungrouping output (override with `.groups` argument)

    ## # A tibble: 200 x 2
    ##    submission_id mean_rating
    ##            <dbl>       <dbl>
    ##  1          2528        37.7
    ##  2          2613        40.5
    ##  3          2591        40.5
    ##  4          2338        40.9
    ##  5          2609        41.0
    ##  6          2346        41.5
    ##  7          2402        41.9
    ##  8          2363        42.3
    ##  9          2473        43.2
    ## 10          2382        43.5
    ## # … with 190 more rows

``` r
# get mean ratings / subject in critical trials 
d_full_clean %>% filter(condition == "critical") %>% group_by(submission_id) %>% summarise(mean_rating = mean(response)) %>% arrange(mean_rating)
```

    ## `summarise()` ungrouping output (override with `.groups` argument)

    ## # A tibble: 200 x 2
    ##    submission_id mean_rating
    ##            <dbl>       <dbl>
    ##  1          2360        37.1
    ##  2          2591        37.6
    ##  3          2338        38.7
    ##  4          2613        38.8
    ##  5          2528        39.0
    ##  6          2402        39.4
    ##  7          2374        40.9
    ##  8          2559        42.3
    ##  9          2609        42.6
    ## 10          2590        42.8
    ## # … with 190 more rows
…
