…
Write out tidy data:

``` r
d_full_clean %>% write_csv("./../../data/main/results_prereg_N158_tidy.csv")
```

``` r
# get overall mean ratings / subject across comprehension and critical trials 
d_full_clean %>% group_by(submission_id) %>% summarise(mean_rating = mean(response)) %>% arrange(mean_rating)
```

    ## `summarise()` ungrouping output (override with `.groups` argument)

    ## # A tibble: 115 x 2
    ##    submission_id mean_rating
    ##            <dbl>       <dbl>
    ##  1          2338        40.9
    ##  2          2346        41.5
    ##  3          2402        41.9
    ##  4          2363        42.3
    ##  5          2473        43.2
    ##  6          2382        43.5
    ##  7          2374        43.6
    ##  8          2360        43.9
    ##  9          2401        44.0
    ## 10          2449        44.7
    ## # … with 105 more rows

``` r
# get mean ratings / subject in critical trials 
d_full_clean %>% filter(condition == "critical") %>% group_by(submission_id) %>% summarise(mean_rating = mean(response)) %>% arrange(mean_rating)
```

    ## `summarise()` ungrouping output (override with `.groups` argument)

    ## # A tibble: 115 x 2
    ##    submission_id mean_rating
    ##            <dbl>       <dbl>
    ##  1          2360        37.1
    ##  2          2338        38.7
    ##  3          2402        39.4
    ##  4          2374        40.9
    ##  5          2346        42.8
    ##  6          2379        44.2
    ##  7          2414        44.3
    ##  8          2450        44.7
    ##  9          2473        45.8
    ## 10          2440        46  
    ## # … with 105 more rows
…
