…
``` r
d %>% distinct(comments) %>% View()
```

Apply language related exclusion criterion: Check native languages.
Participants not indicating English as (one of) their native language(s)
are excluded. We also compute some participant demographics.

``` r
d %>% distinct(languages)
```

    ## # A tibble: 24 x 1
    ##    languages             
    ##    <chr>                 
    ##  1 English               
    ##  2 english               
    ##  3 english french bengali
    ##  4 English and Bulgarian 
    ##  5 ENGLISH               
    ##  6 Spanish               
    ##  7 English, German       
    ##  8 English, Albanian     
    ##  9 english, amharic      
    ## 10 English; isiZulu      
    ## # … with 14 more rows
…
Write out tidy data:

``` r
d_full_clean %>% write_csv("./../../data/main/results_prereg_N233_tidy.csv")
```

``` r
# get overall mean ratings / subject across comprehension and critical trials 
d_full_clean %>% group_by(submission_id) %>% summarise(mean_rating = mean(response)) %>% arrange(mean_rating)
```

    ## `summarise()` ungrouping output (override with `.groups` argument)

    ## # A tibble: 168 x 2
    ##    submission_id mean_rating
    ##            <dbl>       <dbl>
    ##  1          2528        37.7
    ##  2          2338        40.9
    ##  3          2346        41.5
    ##  4          2402        41.9
    ##  5          2363        42.3
    ##  6          2473        43.2
    ##  7          2382        43.5
    ##  8          2374        43.6
    ##  9          2360        43.9
    ## 10          2401        44.0
    ## # … with 158 more rows

``` r
# get mean ratings / subject in critical trials 
d_full_clean %>% filter(condition == "critical") %>% group_by(submission_id) %>% summarise(mean_rating = mean(response)) %>% arrange(mean_rating)
```

    ## `summarise()` ungrouping output (override with `.groups` argument)

    ## # A tibble: 168 x 2
    ##    submission_id mean_rating
    ##            <dbl>       <dbl>
    ##  1          2360        37.1
    ##  2          2338        38.7
    ##  3          2528        39.0
    ##  4          2402        39.4
    ##  5          2374        40.9
    ##  6          2559        42.3
    ##  7          2346        42.8
    ##  8          2553        44.1
    ##  9          2379        44.2
    ## 10          2414        44.3
    ## # … with 158 more rows
…
