…
Applying this function to both model with by-item random effects, we see
that these top six do not differ much between whether we include the
by-subject random effects or not.

``` r
## full model
extract_REs(model_SI) %>% arrange(Estimate.Intercept)
```

    ## # A tibble: 64 × 9
    ##    title       main_type relCat compCat priCat Estimate.Interc… Est.Error.Inter…
    ##    <chr>       <chr>      <dbl>   <dbl>  <dbl>            <dbl>            <dbl>
    ##  1 Gourmet de… some           0       0      1           -0.583            0.146
    ##  2 Dinosaurs   some           0       0      1           -0.455            0.145
    ##  3 Carl's par… xor            1       0      0           -0.362            0.149
    ##  4 Greg's mov… xor            0       0      1           -0.355            0.168
    ##  5 Semester a… xor            1       1      1           -0.350            0.150
    ##  6 College     xor            1       0      0           -0.345            0.144
    ##  7 Violinist   some           1       0      1           -0.333            0.151
    ##  8 Crime       xor            1       0      1           -0.279            0.143
    ##  9 Harvard ad… some           1       0      1           -0.258            0.147
    ## 10 Swiss watc… some           1       0      1           -0.252            0.151
    ## # … with 54 more rows, and 2 more variables: Q2.5.Intercept <dbl>,
    ## #   Q97.5.Intercept <dbl>

``` r
extract_REs(model_SI) %>% arrange(-Estimate.Intercept)
```

    ## # A tibble: 64 × 9
    ##    title       main_type relCat compCat priCat Estimate.Interc… Est.Error.Inter…
    ##    <chr>       <chr>      <dbl>   <dbl>  <dbl>            <dbl>            <dbl>
    ##  1 Harold's p… xor            0       0      0            0.366            0.141
    ##  2 Jimmy's tr… xor            0       0      0            0.346            0.145
    ##  3 Brad Pitt   xor            0       0      0            0.241            0.163
    ##  4 Unexpected… xor            0       1      0            0.232            0.136
    ##  5 Puzzles     some           0       1      0            0.215            0.149
    ##  6 Rotten tom… some           1       0      0            0.214            0.136
    ##  7 Grandma     xor            0       1      1            0.184            0.150
    ##  8 Nuts        some           1       0      0            0.171            0.145
    ##  9 M&M's in t… some           0       1      1            0.168            0.149
    ## 10 Mrs. Todd'… some           0       1      0            0.161            0.143
    ## # … with 54 more rows, and 2 more variables: Q2.5.Intercept <dbl>,
    ## #   Q97.5.Intercept <dbl>

``` r
## model without by-subject REs
extract_REs(model_SI_RETitle) %>% arrange(Estimate.Intercept)
```

    ## # A tibble: 64 × 9
    ##    title       main_type relCat compCat priCat Estimate.Interc… Est.Error.Inter…
    ##    <chr>       <chr>      <dbl>   <dbl>  <dbl>            <dbl>            <dbl>
    ##  1 Gourmet de… some           0       0      1           -0.573            0.150
    ##  2 Dinosaurs   some           0       0      1           -0.472            0.147
    ##  3 Greg's mov… xor            0       0      1           -0.370            0.168
    ##  4 Carl's par… xor            1       0      0           -0.369            0.154
    ##  5 College     xor            1       0      0           -0.352            0.152
    ##  6 Semester a… xor            1       1      1           -0.345            0.152
    ##  7 Violinist   some           1       0      1           -0.342            0.156
    ##  8 Crime       xor            1       0      1           -0.301            0.144
    ##  9 Harvard ad… some           1       0      1           -0.285            0.148
    ## 10 Swiss watc… some           1       0      1           -0.278            0.152
    ## # … with 54 more rows, and 2 more variables: Q2.5.Intercept <dbl>,
    ## #   Q97.5.Intercept <dbl>

``` r
extract_REs(model_SI_RETitle) %>% arrange(-Estimate.Intercept)
```

    ## # A tibble: 64 × 9
    ##    title       main_type relCat compCat priCat Estimate.Interc… Est.Error.Inter…
    ##    <chr>       <chr>      <dbl>   <dbl>  <dbl>            <dbl>            <dbl>
    ##  1 Jimmy's tr… xor            0       0      0            0.370            0.147
    ##  2 Harold's p… xor            0       0      0            0.364            0.142
    ##  3 Puzzles     some           0       1      0            0.238            0.153
    ##  4 Unexpected… xor            0       1      0            0.236            0.137
    ##  5 Brad Pitt   xor            0       0      0            0.225            0.164
    ##  6 Rotten tom… some           1       0      0            0.202            0.139
    ##  7 Grandma     xor            0       1      1            0.187            0.154
    ##  8 Teacher pr… some           1       1      0            0.184            0.149
    ##  9 Nuts        some           1       0      0            0.173            0.149
    ## 10 Gift unwra… some           0       1      1            0.163            0.145
    ## # … with 54 more rows, and 2 more variables: Q2.5.Intercept <dbl>,
    ## #   Q97.5.Intercept <dbl>
…
