…
``` r
# count items used
d_native %>% count(title)
```

    ## # A tibble: 39 x 2
    ##    title                                                                       n
    ##    <chr>                                                                   <int>
    ##  1 "<font size=\"4\" color= \"#00BFFF\"> EXAMPLE </font> <br/> Joe's shop…   188
    ##  2 "Attendance"                                                               48
    ##  3 "Carl's party"                                                             72
    ##  4 "College"                                                                  54
    ##  5 "Crime"                                                                    81
    ##  6 "Dave's kids"                                                             117
    ##  7 "Dinosaurs"                                                                80
    ##  8 "Emails from a broken laptop"                                             104
    ##  9 "Eyewitness"                                                               72
    ## 10 "Felix' clothes"                                                           56
    ## # … with 29 more rows
…
cat(" Nr. of participants left after cleaning: ", d_full_clean %>% distinct(submission_id) %>% pull() %>% length())
```

    ##  Nr. of participants left after cleaning:  41

``` r
# get overall mean ratings / subject across comprehension and critical trials 
d_full_clean %>% group_by(submission_id) %>% summarise(mean_rating = mean(response)) %>% arrange(mean_rating)
```

    ## # A tibble: 41 x 2
    ##    submission_id mean_rating
    ##            <dbl>       <dbl>
    ##  1          2107        39.1
    ##  2          2115        39.6
    ##  3          2109        44.5
    ##  4          2112        44.8
    ##  5          2116        45.1
    ##  6          2098        45.5
    ##  7          2069        45.8
    ##  8          2118        46.9
    ##  9          2071        48.4
    ## 10          2106        48.5
    ## # … with 31 more rows

``` r
# get mean ratings / subject in critical trials 
d_full_clean %>% filter(condition == "critical") %>% group_by(submission_id) %>% summarise(mean_rating = mean(response)) %>% arrange(mean_rating)
```

    ## # A tibble: 41 x 2
    ##    submission_id mean_rating
    ##            <dbl>       <dbl>
    ##  1          2101        44.8
    ##  2          2073        45.0
    ##  3          2107        45.6
    ##  4          2069        46.5
    ##  5          2114        46.6
    ##  6          2085        47.1
    ##  7          2098        48.7
    ##  8          2071        50.1
    ##  9          2075        51.4
    ## 10          2115        52.4
    ## # … with 31 more rows
…
# d_critical_deviations %>% write_csv("../data/pilots/pilot3_byItem_rating_deviations.csv")

print(d_critical_deviations)
```

    ## # A tibble: 24 x 3
    ## # Groups:   title [19]
    ##    title                       block      mean_deviation
    ##    <chr>                       <chr>               <dbl>
    ##  1 Attendance                  prior                97.4
    ##  2 College                     competence           61.3
    ##  3 Crime                       relevance            55.5
    ##  4 Crime                       prior                50.5
    ##  5 Dinosaurs                   competence           54  
    ##  6 Emails from a broken laptop relevance            75.4
    ##  7 Emails from a broken laptop competence           57.6
    ##  8 Emails from a broken laptop prior                52.9
    ##  9 Eyewitness                  relevance            52.8
    ## 10 Gigi's exams                prior                55.8
    ## # … with 14 more rows
…
d_critical_long %>% 
  filter(block != "xor" & block != "some") %>%
  filter(block == class_condition) %>%
  mutate(
         block = ifelse(block == "xor" | block == "some", "target", block)
         ) %>%
  group_by(title, block) %>%
  summarize(item_sd = sd(response)) %>%
  arrange(desc(item_sd), .by_group = T) %>%
  # arbitrary set to 25
  filter(item_sd >= 25) -> d_critical_sd
d_critical_sd
```

    ## # A tibble: 48 x 3
    ## # Groups:   title [30]
    ##    title                       block      item_sd
    ##    <chr>                       <chr>        <dbl>
    ##  1 Carl's party                relevance     25.1
    ##  2 Dinosaurs                   relevance     27.2
    ##  3 Dinosaurs                   prior         26.0
    ##  4 Emails from a broken laptop competence    41.5
    ##  5 Emails from a broken laptop prior         33.2
    ##  6 Emails from a broken laptop relevance     25.3
    ##  7 Eyewitness                  prior         27.9
    ##  8 Eyewitness                  relevance     25.3
    ##  9 Final exam                  relevance     33.8
    ## 10 Final exam                  competence    31.9
    ## # … with 38 more rows
…
Check by-vignette by-predictor empirical means, to see if the range is
somewhat covered:

``` r
d_critical_long %>% 
  mutate(title = paste(title, exp_condition, sep = "_"),
         block = ifelse(block == "xor" | block == "some", "target", block)) %>%
  filter(block == class_condition | block == "target") %>%
  group_by(title, block) %>%
  summarise(mean_response = mean(response)) %>%
  arrange(mean_response)
```

    ## # A tibble: 152 x 3
    ## # Groups:   title [38]
    ##    title                             block      mean_response
    ##    <chr>                             <chr>              <dbl>
    ##  1 Attendance_hhh                    prior                2.6
    ##  2 Final exam_hll                    prior               14.6
    ##  3 Toby's carrots_hhl                prior               15.2
    ##  4 Dave's kids_lll                   competence          18.1
    ##  5 Swiss watch prototype testing_hlh competence          18.2
    ##  6 Dave's kids_lll                   relevance           18.9
    ##  7 Jimmy's trip_lll                  prior               19  
    ##  8 Felix' clothes_lhl                relevance           19.7
    ##  9 Greg's movie_llh                  relevance           20.4
    ## 10 Restaurant_lhh                    relevance           21  
    ## # … with 142 more rows
…
