…
Next, we would exclude participants based on their ratings in the main /
example trials (and possibly the bot check) according to preregistered
exclusion criteria. For now, all the data is considered.

``` r
d_native %>% group_by(submission_id) %>% count(response)
```

    ## # A tibble: 398 x 3
    ## # Groups:   submission_id [10]
    ##    submission_id response     n
    ##            <dbl>    <dbl> <int>
    ##  1          1828        0     3
    ##  2          1828        4     1
    ##  3          1828        7     1
    ##  4          1828       12     3
    ##  5          1828       16     1
    ##  6          1828       22     1
    ##  7          1828       24     3
    ##  8          1828       25     2
    ##  9          1828       26     1
    ## 10          1828       28     3
    ## # ... with 388 more rows
…
