…
``` r
# count items used
d_native %>% count(title)
```

    ## # A tibble: 65 x 2
    ##    title                                                                       n
    ##    <chr>                                                                   <int>
    ##  1 "<font size=\"4\" color= \"#00BFFF\"> EXAMPLE </font> <br/> Joe's shop…   464
    ##  2 "Alex's racket"                                                           231
    ##  3 "Alissa's paint"                                                          132
    ##  4 "Attendance"                                                              150
    ##  5 "Bill's order"                                                            220
    ##  6 "Brad Pitt"                                                                66
    ##  7 "Brad's clothes"                                                          154
    ##  8 "Carl's party"                                                            198
    ##  9 "Champagne reception"                                                     160
    ## 10 "Chloe's holiday"                                                         143
    ## # … with 55 more rows
…
d_test_fail_zScore <- d_test_fail_zScore %>% 
  ungroup() %>%
  filter(passed_filler == F)

cat(" Subjects failing the comprehension trials when using z-scored raw data: ", d_test_fail_zScore %>% distinct(submission_id) %>% pull() %>% length())
```

    ##  Subjects failing the comprehension trials when using z-scored raw data:  0

``` r
# get overall mean ratings / subject
d_full_clean %>% group_by(submission_id) %>% summarise(mean_rating = mean(response)) %>% arrange(mean_rating)
```

    ## # A tibble: 99 x 2
    ##    submission_id mean_rating
    ##            <dbl>       <dbl>
    ##  1          1960        30.0
    ##  2          1956        36.7
    ##  3          1920        39.3
    ##  4          1864        39.7
    ##  5          1950        40.4
    ##  6          1896        42.6
    ##  7          1901        43.2
    ##  8          1878        44.1
    ##  9          1900        44.8
    ## 10          1935        45.0
    ## # … with 89 more rows
…
#d_critical_deviations %>% write_csv("../data/pilots/pilot2_byItem_rating_deviations.csv")

print(d_critical_deviations)
```

    ## # A tibble: 47 x 3
    ## # Groups:   title [37]
    ##    title          block      mean_deviation
    ##    <chr>          <chr>               <dbl>
    ##  1 Alex's racket  prior                61.8
    ##  2 Alex's racket  relevance            54.8
    ##  3 Alissa's paint competence           54.2
    ##  4 Attendance     prior                82.9
    ##  5 Bill's order   prior                52.7
    ##  6 Brad Pitt      competence           52.3
    ##  7 Brad's clothes relevance            65.6
    ##  8 Brad's clothes prior                58.6
    ##  9 College        competence           51.0
    ## 10 Crime          prior                51.4
    ## # … with 37 more rows
…
    ## # A tibble: 3 x 2
    ## # Groups:   block [3]
    ##   block          n
    ##   <chr>      <int>
    ## 1 competence    13
    ## 2 prior         22
    ## 3 relevance     12

``` r
# check which items have the most deviations over 50 
d_critical_deviations %>% group_by(title) %>% count() %>% arrange(desc(.$n))
```

    ## # A tibble: 37 x 2
    ## # Groups:   title [37]
    ##    title                n
    ##    <chr>            <int>
    ##  1 Greg's movie         3
    ##  2 Shelter              3
    ##  3 Alex's racket        2
    ##  4 Brad's clothes       2
    ##  5 Gourmet desserts     2
    ##  6 Health inspector     2
    ##  7 Suzy's fruits        2
    ##  8 The game             2
    ##  9 Alissa's paint       1
    ## 10 Attendance           1
    ## # … with 27 more rows
…
d_critical_long %>% 
  filter(block != "xor" & block != "some") %>%
  filter(block == class_condition) %>%
  mutate(
         block = ifelse(block == "xor" | block == "some", "target", block)
         ) %>%
  group_by(title, block) %>%
  summarize(item_sd = sd(response)) %>%
  arrange(desc(item_sd), .by_group = T) %>%
  # arbitrary set to 25
  filter(item_sd >= 25) -> d_critical_sd
d_critical_sd
```

    ## # A tibble: 90 x 3
    ## # Groups:   title [59]
    ##    title               block      item_sd
    ##    <chr>               <chr>        <dbl>
    ##  1 Alex's racket       competence    26.6
    ##  2 Alissa's paint      competence    26.9
    ##  3 Attendance          prior         25.0
    ##  4 Bill's order        relevance     25.6
    ##  5 Brad Pitt           competence    25.5
    ##  6 Brad's clothes      competence    34.4
    ##  7 Brad's clothes      relevance     28.0
    ##  8 Carl's party        relevance     33.2
    ##  9 Carl's party        competence    28.8
    ## 10 Champagne reception relevance     28.1
    ## # … with 80 more rows
…
Check by-vignette by-predictor empirical means, to see if the range is
somewhat covered:

``` r
d_critical_long %>% 
  mutate(title = paste(title, exp_condition, sep = "_"),
         block = ifelse(block == "xor" | block == "some", "target", block)) %>%
  filter(block == class_condition | block == "target") %>%
  group_by(title, block) %>%
  summarise(mean_response = mean(response)) %>%
  arrange(mean_response)
```

    ## # A tibble: 256 x 3
    ## # Groups:   title [64]
    ##    title                     block mean_response
    ##    <chr>                     <chr>         <dbl>
    ##  1 Final exam_hll            prior          10.6
    ##  2 Teacher_hhl               prior          10.8
    ##  3 Champagne reception_lll   prior          12  
    ##  4 Mrs Todd's math exams_lhl prior          13.1
    ##  5 Teacher problems_hhl      prior          14.3
    ##  6 Underage drinking_lhl     prior          14.3
    ##  7 Harold's pet_lll          prior          15.0
    ##  8 Shelter_llh               prior          15.4
    ##  9 Tail-donkey blindfold_hhl prior          16.2
    ## 10 Stand-up comedy show_lll  prior          17  
    ## # … with 246 more rows
…
